Receipt No,Invoice number,Payment Date,Payed By,Amount Paid
H333213543,RSM000436,2020-10-13,GA,4000
H333213543,RSM000430,2020-10-13,GA,20000
H333213543,RSM000393,2020-10-13,GA,20000
H333213543,RSM000333,2020-10-13,GA,15000
H333213543,RSM000333,2020-10-13,GA,1000
H333213543,RSM000357,2020-10-13,GA,6000
H333213543,RSM000368,2020-10-13,GA,13000
H333213543,RSM000422,2020-10-13,GA,19000
H333213543,RSM000424,2020-10-13,GA,6000
H333213543,RSM000416,2020-10-13,GA,2500
H333213543,RSM000431,2020-10-13,GA,24100
,,,,
