Receipt No,Invoice number,Payment Date,Payed By,Amount Paid
ECP177403,RSY001165,2020-10-09,UAP,1000
ECP177403,RS001117,2020-10-09,UAP,2200
ECP177403,RSY00177,2020-10-09,UAP,5000
ECP177403,RS001147,2020-10-09,UAP,6000
ECP177403,RS001076,2020-10-09,UAP,6600
ECP177403,RS001099,2020-10-09,UAP,6600
ECP177403,RS001049,2020-10-09,UAP,7000
ECP177403,RS001116,2020-10-09,UAP,8000
ECP177403,RSY001189,2020-10-09,UAP,15000
ECP177403,RSY001142,2020-10-09,UAP,21000
ECP177403,RSY000982,2020-10-09,UAP,31600
,,,,
,,,,
,,,,
,,,,
